Chapter 13 Practice
…
🎯 I need to test my prediction to see how many groups will be made by grouping both state and disease with the group_by() function

#⚡Code 
categorical_counts <- us_contagious_diseases %>%
  group_by(state, disease) %>%
  summarize()

`summarise()` has grouped output by 'state'. You can override using the
`.groups` argument.

# ✅ Checks
count(categorical_counts)

# A tibble: 51 × 2
# Groups:   state [51]
   state                    n
   <fct>                <int>
 1 Alabama                  7
 2 Alaska                   7
 3 Arizona                  7
 4 Arkansas                 7
 5 California               7
 6 Colorado                 7
 7 Connecticut              7
 8 Delaware                 7
 9 District Of Columbia     7
10 Florida                  7
# ℹ 41 more rows

categorical_counts

# A tibble: 357 × 2
# Groups:   state [51]
   state   disease    
   <fct>   <fct>      
 1 Alabama Hepatitis A
 2 Alabama Measles    
 3 Alabama Mumps      
 4 Alabama Pertussis  
 5 Alabama Polio      
 6 Alabama Rubella    
 7 Alabama Smallpox   
 8 Alaska  Hepatitis A
 9 Alaska  Measles    
10 Alaska  Mumps      
# ℹ 347 more rows
…
